…
pa_count <- mutate_all(df, .funs = toupper) 

#Now change the "n" column in this tibble to from character to numeric so we can apply the sum function to add up the rows which are identical

pa_count$n <- as.numeric(as.character(pa_count$n))

pa_count_clean <- pa_count %>%
  group_by(plant_area) %>%
  summarise(n = sum(n))

print(pa_count_clean)
```

    ## # A tibble: 45 × 2
    ##    plant_area     n
    ##    <chr>      <dbl>
    ##  1 0              3
    ##  2 1             33
    ##  3 10         20467
    ##  4 11          1235
    ##  5 12          9198
    ##  6 13           290
    ##  7 14           422
    ##  8 15          1617
    ##  9 16           215
    ## 10 17           102
    ## # … with 35 more rows
…
``` r
vancouver_trees %>%
  group_by(species_name) %>%
  summarise(mean = mean(height_range_id, na.rm = TRUE),
            sd = sd(height_range_id, na.rm = TRUE),
            range = max(height_range_id, na.rm = TRUE) - min(height_range_id, na.rm = TRUE),
            median = median(height_range_id, na.rm = TRUE))
```

    ## # A tibble: 283 × 5
    ##    species_name    mean     sd range median
    ##    <chr>          <dbl>  <dbl> <dbl>  <dbl>
    ##  1 ABIES           3.28  1.67      8    3  
    ##  2 ACERIFOLIA   X  4.63  1.92      8    4  
    ##  3 ACUMINATA       2.57  0.535     1    3  
    ##  4 ACUTISSIMA      2.76  1.06      6    3  
    ##  5 AILANTHIFOLIA   5     1         2    5  
    ##  6 ALBA            3.12  1.82      6    3.5
    ##  7 ALBA-SINENSIS   2.67  0.577     1    3  
    ##  8 ALNIFOLIA       1.77  0.706     6    2  
    ##  9 ALPINUM         2    NA         0    2  
    ## 10 ALTISSIMA       3.5   1.73      4    4  
    ## # … with 273 more rows
…
``` r
count_rb_per_neighbourhood <- vancouver_trees %>%
  group_by(neighbourhood_name) %>%
  filter(root_barrier == 'Y') %>%
  summarise(n = n())

count_rb_per_neighbourhood
```

    ## # A tibble: 22 × 2
    ##    neighbourhood_name           n
    ##    <chr>                    <int>
    ##  1 ARBUTUS-RIDGE              201
    ##  2 DOWNTOWN                   326
    ##  3 DUNBAR-SOUTHLANDS          207
    ##  4 FAIRVIEW                   248
    ##  5 GRANDVIEW-WOODLAND         534
    ##  6 HASTINGS-SUNRISE          1055
    ##  7 KENSINGTON-CEDAR COTTAGE   597
    ##  8 KERRISDALE                 252
    ##  9 KILLARNEY                  495
    ## 10 KITSILANO                  442
    ## # … with 12 more rows

``` r
count_no_rb_per_neighbourhood <- vancouver_trees %>%
  group_by(neighbourhood_name) %>%
  filter(root_barrier == 'N') %>%
  summarise(n = n())

count_no_rb_per_neighbourhood
```

    ## # A tibble: 22 × 2
    ##    neighbourhood_name           n
    ##    <chr>                    <int>
    ##  1 ARBUTUS-RIDGE             4968
    ##  2 DOWNTOWN                  4833
    ##  3 DUNBAR-SOUTHLANDS         9208
    ##  4 FAIRVIEW                  3754
    ##  5 GRANDVIEW-WOODLAND        6169
    ##  6 HASTINGS-SUNRISE          9492
    ##  7 KENSINGTON-CEDAR COTTAGE 10445
    ##  8 KERRISDALE                6684
    ##  9 KILLARNEY                 5653
    ## 10 KITSILANO                 7673
    ## # … with 12 more rows

To address research question 2, I will create a new categorical variable
out of an existing numeric variable “height_range_id”. This can help
group the observations together and take the previous height range id’s
into categories that are more easily interpreted.

``` r
#Creating new categorical variable "height_bins" which groups together different tree heights into categories of xsmall, small, medium, large, and xlarge trees
height_cats <- vancouver_trees %>%
  mutate(height_bins = cut(height_range_id, breaks = c(0,2,4,6,8,10), labels = c("xsmall", "small", "medium", "large", "xlarge")))

height_cats
```

    ## # A tibble: 146,611 × 21
    ##    tree_id civic_number std_st…¹ genus…² speci…³ culti…⁴ commo…⁵ assig…⁶ root_…⁷
    ##      <dbl>        <dbl> <chr>    <chr>   <chr>   <chr>   <chr>   <chr>   <chr>  
    ##  1  149556          494 W 58TH … ULMUS   AMERIC… BRANDON BRANDO… N       N      
    ##  2  149563          450 W 58TH … ZELKOVA SERRATA <NA>    JAPANE… N       N      
    ##  3  149579         4994 WINDSOR… STYRAX  JAPONI… <NA>    JAPANE… N       N      
    ##  4  149590          858 E 39TH … FRAXIN… AMERIC… AUTUMN… AUTUMN… Y       N      
    ##  5  149604         5032 WINDSOR… ACER    CAMPES… <NA>    HEDGE … N       N      
    ##  6  149616          585 W 61ST … PYRUS   CALLER… CHANTI… CHANTI… N       N      
    ##  7  149617         4909 SHERBRO… ACER    PLATAN… COLUMN… COLUMN… N       N      
    ##  8  149618         4925 SHERBRO… ACER    PLATAN… COLUMN… COLUMN… N       N      
    ##  9  149619         4969 SHERBRO… ACER    PLATAN… COLUMN… COLUMN… N       N      
    ## 10  149625          720 E 39TH … FRAXIN… AMERIC… AUTUMN… AUTUMN… N       N      
    ## # … with 146,601 more rows, 12 more variables: plant_area <chr>,
    ## #   on_street_block <dbl>, on_street <chr>, neighbourhood_name <chr>,
    ## #   street_side_name <chr>, height_range_id <dbl>, diameter <dbl>, curb <chr>,
    ## #   date_planted <date>, longitude <dbl>, latitude <dbl>, height_bins <fct>,
    ## #   and abbreviated variable names ¹​std_street, ²​genus_name, ³​species_name,
    ## #   ⁴​cultivar_name, ⁵​common_name, ⁶​assigned, ⁷​root_barrier
…
