…
``` r
# putting the street block number and name together into one column, could potentially be useful but also runs the risk of being too coarse if certain street blocks within a neighbourhood need to be analyzed
vancouver_trees %>%
  unite(col = "street_block_info",
        c(on_street_block, on_street),
        sep = " ")
```

    ## # A tibble: 146,611 × 19
    ##    tree_id civic_number std_st…¹ genus…² speci…³ culti…⁴ commo…⁵ assig…⁶ root_…⁷
    ##      <dbl>        <dbl> <chr>    <chr>   <chr>   <chr>   <chr>   <chr>   <chr>  
    ##  1  149556          494 W 58TH … ULMUS   AMERIC… BRANDON BRANDO… N       N      
    ##  2  149563          450 W 58TH … ZELKOVA SERRATA <NA>    JAPANE… N       N      
    ##  3  149579         4994 WINDSOR… STYRAX  JAPONI… <NA>    JAPANE… N       N      
    ##  4  149590          858 E 39TH … FRAXIN… AMERIC… AUTUMN… AUTUMN… Y       N      
    ##  5  149604         5032 WINDSOR… ACER    CAMPES… <NA>    HEDGE … N       N      
    ##  6  149616          585 W 61ST … PYRUS   CALLER… CHANTI… CHANTI… N       N      
    ##  7  149617         4909 SHERBRO… ACER    PLATAN… COLUMN… COLUMN… N       N      
    ##  8  149618         4925 SHERBRO… ACER    PLATAN… COLUMN… COLUMN… N       N      
    ##  9  149619         4969 SHERBRO… ACER    PLATAN… COLUMN… COLUMN… N       N      
    ## 10  149625          720 E 39TH … FRAXIN… AMERIC… AUTUMN… AUTUMN… N       N      
    ## # … with 146,601 more rows, 10 more variables: plant_area <chr>,
    ## #   street_block_info <chr>, neighbourhood_name <chr>, street_side_name <chr>,
    ## #   height_range_id <dbl>, diameter <dbl>, curb <chr>, date_planted <date>,
    ## #   longitude <dbl>, latitude <dbl>, and abbreviated variable names
    ## #   ¹​std_street, ²​genus_name, ³​species_name, ⁴​cultivar_name, ⁵​common_name,
    ## #   ⁶​assigned, ⁷​root_barrier

``` r
# combining the longitude and latitude together into a coordinates variable which shortens the tibbles number of columns as well - probably easier to compile the raw data in this separated form but could make sense to have these together
vancouver_trees %>%
  unite(col = "coordinates",
        c(longitude, latitude),
        sep = ", ")
```

    ## # A tibble: 146,611 × 19
    ##    tree_id civic_number std_st…¹ genus…² speci…³ culti…⁴ commo…⁵ assig…⁶ root_…⁷
    ##      <dbl>        <dbl> <chr>    <chr>   <chr>   <chr>   <chr>   <chr>   <chr>  
    ##  1  149556          494 W 58TH … ULMUS   AMERIC… BRANDON BRANDO… N       N      
    ##  2  149563          450 W 58TH … ZELKOVA SERRATA <NA>    JAPANE… N       N      
    ##  3  149579         4994 WINDSOR… STYRAX  JAPONI… <NA>    JAPANE… N       N      
    ##  4  149590          858 E 39TH … FRAXIN… AMERIC… AUTUMN… AUTUMN… Y       N      
    ##  5  149604         5032 WINDSOR… ACER    CAMPES… <NA>    HEDGE … N       N      
    ##  6  149616          585 W 61ST … PYRUS   CALLER… CHANTI… CHANTI… N       N      
    ##  7  149617         4909 SHERBRO… ACER    PLATAN… COLUMN… COLUMN… N       N      
    ##  8  149618         4925 SHERBRO… ACER    PLATAN… COLUMN… COLUMN… N       N      
    ##  9  149619         4969 SHERBRO… ACER    PLATAN… COLUMN… COLUMN… N       N      
    ## 10  149625          720 E 39TH … FRAXIN… AMERIC… AUTUMN… AUTUMN… N       N      
    ## # … with 146,601 more rows, 10 more variables: plant_area <chr>,
    ## #   on_street_block <dbl>, on_street <chr>, neighbourhood_name <chr>,
    ## #   street_side_name <chr>, height_range_id <dbl>, diameter <dbl>, curb <chr>,
    ## #   date_planted <date>, coordinates <chr>, and abbreviated variable names
    ## #   ¹​std_street, ²​genus_name, ³​species_name, ⁴​cultivar_name, ⁵​common_name,
    ## #   ⁶​assigned, ⁷​root_barrier

``` r
# making the dataset untidy by creating separate columns for each neighbourhood and placing the diameter value as the observaitonal value for each tree - this makes for an unreasonably "wide" dataset and results in a very large number of NA values scattered throughout the dataset
untidy_1 <- vancouver_trees %>%
  pivot_wider(names_from = neighbourhood_name,
              values_from = diameter)

untidy_1
```

    ## # A tibble: 146,611 × 40
    ##    tree_id civic_number std_st…¹ genus…² speci…³ culti…⁴ commo…⁵ assig…⁶ root_…⁷
    ##      <dbl>        <dbl> <chr>    <chr>   <chr>   <chr>   <chr>   <chr>   <chr>  
    ##  1  149556          494 W 58TH … ULMUS   AMERIC… BRANDON BRANDO… N       N      
    ##  2  149563          450 W 58TH … ZELKOVA SERRATA <NA>    JAPANE… N       N      
    ##  3  149579         4994 WINDSOR… STYRAX  JAPONI… <NA>    JAPANE… N       N      
    ##  4  149590          858 E 39TH … FRAXIN… AMERIC… AUTUMN… AUTUMN… Y       N      
    ##  5  149604         5032 WINDSOR… ACER    CAMPES… <NA>    HEDGE … N       N      
    ##  6  149616          585 W 61ST … PYRUS   CALLER… CHANTI… CHANTI… N       N      
    ##  7  149617         4909 SHERBRO… ACER    PLATAN… COLUMN… COLUMN… N       N      
    ##  8  149618         4925 SHERBRO… ACER    PLATAN… COLUMN… COLUMN… N       N      
    ##  9  149619         4969 SHERBRO… ACER    PLATAN… COLUMN… COLUMN… N       N      
    ## 10  149625          720 E 39TH … FRAXIN… AMERIC… AUTUMN… AUTUMN… N       N      
    ## # … with 146,601 more rows, 31 more variables: plant_area <chr>,
    ## #   on_street_block <dbl>, on_street <chr>, street_side_name <chr>,
    ## #   height_range_id <dbl>, curb <chr>, date_planted <date>, longitude <dbl>,
    ## #   latitude <dbl>, MARPOLE <dbl>, `KENSINGTON-CEDAR COTTAGE` <dbl>,
    ## #   OAKRIDGE <dbl>, `MOUNT PLEASANT` <dbl>, `RENFREW-COLLINGWOOD` <dbl>,
    ## #   `RILEY PARK` <dbl>, DOWNTOWN <dbl>, SUNSET <dbl>, `ARBUTUS-RIDGE` <dbl>,
    ## #   `GRANDVIEW-WOODLAND` <dbl>, KITSILANO <dbl>, `WEST END` <dbl>, …

``` r
# tidying the dataset back to its original state
van_trees_og <- untidy_1 %>%
  pivot_longer(cols = c(-tree_id, -civic_number, -std_street, -genus_name, -species_name, -cultivar_name, -common_name, -assigned, -root_barrier, -plant_area, -on_street_block, -on_street, -street_side_name, -height_range_id, -curb, -date_planted, -longitude, -latitude), 
               names_to = "neighbourhood_names", 
               values_to = "diameter",
               values_drop_na = TRUE)

van_trees_og
```

    ## # A tibble: 146,611 × 20
    ##    tree_id civic_number std_st…¹ genus…² speci…³ culti…⁴ commo…⁵ assig…⁶ root_…⁷
    ##      <dbl>        <dbl> <chr>    <chr>   <chr>   <chr>   <chr>   <chr>   <chr>  
    ##  1  149556          494 W 58TH … ULMUS   AMERIC… BRANDON BRANDO… N       N      
    ##  2  149563          450 W 58TH … ZELKOVA SERRATA <NA>    JAPANE… N       N      
    ##  3  149579         4994 WINDSOR… STYRAX  JAPONI… <NA>    JAPANE… N       N      
    ##  4  149590          858 E 39TH … FRAXIN… AMERIC… AUTUMN… AUTUMN… Y       N      
    ##  5  149604         5032 WINDSOR… ACER    CAMPES… <NA>    HEDGE … N       N      
    ##  6  149616          585 W 61ST … PYRUS   CALLER… CHANTI… CHANTI… N       N      
    ##  7  149617         4909 SHERBRO… ACER    PLATAN… COLUMN… COLUMN… N       N      
    ##  8  149618         4925 SHERBRO… ACER    PLATAN… COLUMN… COLUMN… N       N      
    ##  9  149619         4969 SHERBRO… ACER    PLATAN… COLUMN… COLUMN… N       N      
    ## 10  149625          720 E 39TH … FRAXIN… AMERIC… AUTUMN… AUTUMN… N       N      
    ## # … with 146,601 more rows, 11 more variables: plant_area <chr>,
    ## #   on_street_block <dbl>, on_street <chr>, street_side_name <chr>,
    ## #   height_range_id <dbl>, curb <chr>, date_planted <date>, longitude <dbl>,
    ## #   latitude <dbl>, neighbourhood_names <chr>, diameter <dbl>, and abbreviated
    ## #   variable names ¹​std_street, ²​genus_name, ³​species_name, ⁴​cultivar_name,
    ## #   ⁵​common_name, ⁶​assigned, ⁷​root_barrier
…
<!--------------------------- Start your work below --------------------------->

``` r
# getting rid of columns that are not of interest to me right now
van_trees_i <- vancouver_trees %>%
  select(c(-assigned, -on_street_block, -on_street, -street_side_name, -curb))

# new tibble where only trees with letter character inputs for plant_area are considered
pa_let <- van_trees_i %>%
  filter(plant_area %in% c("B", "C", "G", "L", "M", "N", "P", "Y"))

pa_let
```

    ## # A tibble: 33,864 × 15
    ##    tree_id civic_number std_st…¹ genus…² speci…³ culti…⁴ commo…⁵ root_…⁶ plant…⁷
    ##      <dbl>        <dbl> <chr>    <chr>   <chr>   <chr>   <chr>   <chr>   <chr>  
    ##  1  149556          494 W 58TH … ULMUS   AMERIC… BRANDON BRANDO… N       N      
    ##  2  149563          450 W 58TH … ZELKOVA SERRATA <NA>    JAPANE… N       N      
    ##  3  149616          585 W 61ST … PYRUS   CALLER… CHANTI… CHANTI… N       B      
    ##  4  149640         6968 SELKIRK… ACER    PLATAN… COLUMN… COLUMN… N       N      
    ##  5  149683         7011 SELKIRK… ACER    PLATAN… COLUMN… COLUMN… N       N      
    ##  6  149684         1223 W 54TH … ACER    PLATAN… COLUMN… COLUMN… N       N      
    ##  7  149694         1292 W 49TH … ACER    PLATAN… COLUMN… COLUMN… N       N      
    ##  8  155226         4525 CLAREND… LIQUID… STYRAC… <NA>    AMERIC… N       N      
    ##  9  155317          316 CARRALL… ACER    RUBRUM  <NA>    RED MA… N       C      
    ## 10  155321          319 CARRALL… ACER    RUBRUM  <NA>    RED MA… N       C      
    ## # … with 33,854 more rows, 6 more variables: neighbourhood_name <chr>,
    ## #   height_range_id <dbl>, diameter <dbl>, date_planted <date>,
    ## #   longitude <dbl>, latitude <dbl>, and abbreviated variable names
    ## #   ¹​std_street, ²​genus_name, ³​species_name, ⁴​cultivar_name, ⁵​common_name,
    ## #   ⁶​root_barrier, ⁷​plant_area

``` r
# new tibble where only trees with number inputs for plant_area are considered
pa_num <- van_trees_i %>%
  filter(str_detect(plant_area, "\\d")) %>%
  rename(blvd_width = plant_area)

# converting the plant_area column to be numeric type  
pa_num$blvd_width = as.numeric(as.character(pa_num$blvd_width))

pa_num
```

    ## # A tibble: 110,833 × 15
    ##    tree_id civic_number std_st…¹ genus…² speci…³ culti…⁴ commo…⁵ root_…⁶ blvd_…⁷
    ##      <dbl>        <dbl> <chr>    <chr>   <chr>   <chr>   <chr>   <chr>     <dbl>
    ##  1  149579         4994 WINDSOR… STYRAX  JAPONI… <NA>    JAPANE… N             4
    ##  2  149590          858 E 39TH … FRAXIN… AMERIC… AUTUMN… AUTUMN… N             4
    ##  3  149604         5032 WINDSOR… ACER    CAMPES… <NA>    HEDGE … N             4
    ##  4  149617         4909 SHERBRO… ACER    PLATAN… COLUMN… COLUMN… N             6
    ##  5  149618         4925 SHERBRO… ACER    PLATAN… COLUMN… COLUMN… N             6
    ##  6  149619         4969 SHERBRO… ACER    PLATAN… COLUMN… COLUMN… N             3
    ##  7  149625          720 E 39TH … FRAXIN… AMERIC… AUTUMN… AUTUMN… N             3
    ##  8  149626          736 E 39TH … TILIA   EUCHLO… <NA>    CRIMEA… N             5
    ##  9  149636          812 E 39TH … TILIA   EUCHLO… <NA>    CRIMEA… N             3
    ## 10  149646          505 E 16TH … HIBISC… SYRIACA <NA>    ROSE O… N             3
    ## # … with 110,823 more rows, 6 more variables: neighbourhood_name <chr>,
    ## #   height_range_id <dbl>, diameter <dbl>, date_planted <date>,
    ## #   longitude <dbl>, latitude <dbl>, and abbreviated variable names
    ## #   ¹​std_street, ²​genus_name, ³​species_name, ⁴​cultivar_name, ⁵​common_name,
    ## #   ⁶​root_barrier, ⁷​blvd_width

``` r
# creating bins for the height ranges 
van_trees_bins <- pa_num %>%
  mutate(height_bins = cut(height_range_id, breaks = c(0,2,4,6,8,10), labels = c("xsmall", "small", "medium", "large", "xlarge")))

# making a new "year" date column  
van_trees_new <- van_trees_bins %>% 
    mutate(year = lubridate::floor_date(date_planted, "year"))

van_trees_new
```

    ## # A tibble: 110,833 × 17
    ##    tree_id civic_number std_st…¹ genus…² speci…³ culti…⁴ commo…⁵ root_…⁶ blvd_…⁷
    ##      <dbl>        <dbl> <chr>    <chr>   <chr>   <chr>   <chr>   <chr>     <dbl>
    ##  1  149579         4994 WINDSOR… STYRAX  JAPONI… <NA>    JAPANE… N             4
    ##  2  149590          858 E 39TH … FRAXIN… AMERIC… AUTUMN… AUTUMN… N             4
    ##  3  149604         5032 WINDSOR… ACER    CAMPES… <NA>    HEDGE … N             4
    ##  4  149617         4909 SHERBRO… ACER    PLATAN… COLUMN… COLUMN… N             6
    ##  5  149618         4925 SHERBRO… ACER    PLATAN… COLUMN… COLUMN… N             6
    ##  6  149619         4969 SHERBRO… ACER    PLATAN… COLUMN… COLUMN… N             3
    ##  7  149625          720 E 39TH … FRAXIN… AMERIC… AUTUMN… AUTUMN… N             3
    ##  8  149626          736 E 39TH … TILIA   EUCHLO… <NA>    CRIMEA… N             5
    ##  9  149636          812 E 39TH … TILIA   EUCHLO… <NA>    CRIMEA… N             3
    ## 10  149646          505 E 16TH … HIBISC… SYRIACA <NA>    ROSE O… N             3
    ## # … with 110,823 more rows, 8 more variables: neighbourhood_name <chr>,
    ## #   height_range_id <dbl>, diameter <dbl>, date_planted <date>,
    ## #   longitude <dbl>, latitude <dbl>, height_bins <fct>, year <date>, and
    ## #   abbreviated variable names ¹​std_street, ²​genus_name, ³​species_name,
    ## #   ⁴​cultivar_name, ⁵​common_name, ⁶​root_barrier, ⁷​blvd_width
…
<!-------------------------- Start your work below ---------------------------->

**Task Number 3**

``` r
 # using the floor_date function in lubridate to create a new column indicating the month of the year each tree was planted, and then arranging this row in ascending order from the earliest recorded planting 

van_trees_monthly <- van_trees_new %>% 
    group_by(month = lubridate::floor_date(date_planted, "month")) %>%
  arrange(month)

van_trees_monthly
```

    ## # A tibble: 110,833 × 18
    ## # Groups:   month [293]
    ##    tree_id civic_number std_st…¹ genus…² speci…³ culti…⁴ commo…⁵ root_…⁶ blvd_…⁷
    ##      <dbl>        <dbl> <chr>    <chr>   <chr>   <chr>   <chr>   <chr>     <dbl>
    ##  1  122127          412 E 46TH … TILIA   CORDATA <NA>    LITTLE… N            10
    ##  2  122593         2211 W 32ND … TILIA   CORDATA <NA>    LITTLE… N             9
    ##  3  122595         2221 W 32ND … TILIA   CORDATA <NA>    LITTLE… N             9
    ##  4  122130          434 E 46TH … TILIA   CORDATA <NA>    LITTLE… N            10
    ##  5  122591         2185 W 32ND … TILIA   CORDATA <NA>    LITTLE… N             9
    ##  6  122602         2244 W 32ND … TILIA   CORDATA <NA>    LITTLE… N             9
    ##  7  122603         2232 W 32ND … TILIA   CORDATA <NA>    LITTLE… N             9
    ##  8   31395         2105 W 32ND … TILIA   CORDATA <NA>    LITTLE… N             4
    ##  9   31396         2105 W 32ND … TILIA   CORDATA <NA>    LITTLE… N             4
    ## 10   30343         3621 W 30TH … PRUNUS  CERASI… ATROPU… PISSAR… N            12
    ## # … with 110,823 more rows, 9 more variables: neighbourhood_name <chr>,
    ## #   height_range_id <dbl>, diameter <dbl>, date_planted <date>,
    ## #   longitude <dbl>, latitude <dbl>, height_bins <fct>, year <date>,
    ## #   month <date>, and abbreviated variable names ¹​std_street, ²​genus_name,
    ## #   ³​species_name, ⁴​cultivar_name, ⁵​common_name, ⁶​root_barrier, ⁷​blvd_width
…
